\relax 
\providecommand\hyper@newdestlabel[2]{}
\providecommand\HyperFirstAtBeginDocument{\AtBeginDocument}
\HyperFirstAtBeginDocument{\ifx\hyper@anchor\@undefined
\global\let\oldcontentsline\contentsline
\gdef\contentsline#1#2#3#4{\oldcontentsline{#1}{#2}{#3}}
\global\let\oldnewlabel\newlabel
\gdef\newlabel#1#2{\newlabelxx{#1}#2}
\gdef\newlabelxx#1#2#3#4#5#6{\oldnewlabel{#1}{{#2}{#3}}}
\AtEndDocument{\ifx\hyper@anchor\@undefined
\let\contentsline\oldcontentsline
\let\newlabel\oldnewlabel
\fi}
\fi}
\global\let\hyper@last\relax 
\gdef\HyperFirstAtBeginDocument#1{#1}
\providecommand\HyField@AuxAddToFields[1]{}
\providecommand\HyField@AuxAddToCoFields[2]{}
\@writefile{toc}{\contentsline {section}{\numberline {1}Git repository}{1}{section.1}}
\@writefile{toc}{\contentsline {section}{\numberline {2}Behavior of the BML model}{1}{section.2}}
\@writefile{toc}{\contentsline {section}{\numberline {3}Performance of the code}{1}{section.3}}
\@writefile{toc}{\contentsline {subsection}{\numberline {3.1}Comparison of my two code}{1}{subsection.3.1}}
\@writefile{toc}{\contentsline {subsection}{\numberline {3.2}Performance with grid size and density}{2}{subsection.3.2}}
\@writefile{toc}{\contentsline {section}{\numberline {4}Appendix}{4}{section.4}}
\@writefile{toc}{\contentsline {subsection}{\numberline {4.1}Appendix 1: Figure}{4}{subsection.4.1}}
\@writefile{lof}{\contentsline {figure}{\numberline {1}{\ignorespaces rho=0}}{4}{figure.1}}
\newlabel{fig:unnamed-chunk-5}{{1}{4}{rho=0}{figure.1}{}}
\@writefile{lof}{\contentsline {figure}{\numberline {2}{\ignorespaces rho=0}}{5}{figure.2}}
\newlabel{fig:unnamed-chunk-6}{{2}{5}{rho=0}{figure.2}{}}
\@writefile{toc}{\contentsline {subsection}{\numberline {4.2}Appendix 2: Code}{5}{subsection.4.2}}
